<?xml version="1.0" encoding="UTF-8"?>
<svg width="100px" height="100px" viewBox="0 0 100 100" version="1.1" xmlns="http://www.w3.org/2000/svg" xmlns:xlink="http://www.w3.org/1999/xlink">
    <!-- Generator: Sketch 54.1 (76490) - https://sketchapp.com -->
    <title>Custom Preset 2</title>
    <desc>Created with Sketch.</desc>
    <g stroke="none" stroke-width="1" fill="none" fill-rule="evenodd">
        <g transform="translate(19.000000, 28.000000)" fill="#000000" fill-rule="nonzero">
            <path d="M58.2464789,27.8239437 C59.6408451,23.3239437 60.0211268,21.8028169 58.2464789,16.9225352 C57.1056338,13.7535211 55.584507,10.1408451 52.0985915,7.28873239 C47.915493,3.86619718 41.9577465,2.53521127 33.9084507,3.1056338 C33.5915493,3.04225352 30.9295775,2.59859155 29.3450704,1.26760563 C27.5704225,-0.253521127 24.084507,-0.697183099 19.7112676,2.66197183 C19.7112676,2.66197183 17.9366197,3.8028169 12.4225352,4.43661972 C12.3591549,4.43661972 11.1549296,4.5 9.95070423,4.81690141 C9.50704225,4.30985915 8.23943662,2.97887324 7.03521127,3.29577465 C6.78169014,3.35915493 6.52816901,3.54929577 6.40140845,3.8028169 C5.8943662,4.69014085 6.33802817,6.52816901 6.52816901,7.16197183 C6.40140845,7.28873239 6.33802817,7.35211268 6.21126761,7.47887324 C5.1971831,8.49295775 4.11971831,9.50704225 3.54929577,10.584507 C3.35915493,11.028169 3.42253521,11.8521127 3.48591549,12.2323944 L0.443661972,14.6408451 C-2.6749436e-15,15.0211268 -0.126760563,15.6549296 0.190140845,16.1619718 C0.316901408,16.3521127 0.507042254,16.6056338 0.633802817,16.9859155 C1.3943662,18.3802817 2.0915493,19.3943662 2.78873239,19.584507 C3.67605634,19.7746479 6.02112676,20.028169 8.61971831,19.7746479 C9.76056338,19.6478873 12.4225352,19.6478873 15.0211268,19.584507 C15.2746479,20.5352113 16.2887324,24.1478873 16.8591549,26.4295775 C17.4929577,29.1549296 19.0140845,30.9929577 19.5211268,31.6267606 C19.3309859,31.8169014 19.2042254,32.0070423 19.0140845,32.1971831 C16.4788732,34.7323944 16.7323944,38.028169 17.4929577,39.6126761 C17.8732394,40.3732394 18.6971831,41.1338028 19.6478873,41.5140845 C19.584507,41.7042254 19.584507,41.8943662 19.584507,42.0211268 C19.7112676,42.5915493 20.2183099,42.9084507 20.2816901,42.971831 C20.3450704,42.971831 20.4084507,43.0352113 20.471831,43.0352113 L20.471831,43.0352113 L22.5,43.0352113 C22.8169014,43.0352113 23.2605634,43.0352113 23.7676056,43.0352113 C24.528169,43.0352113 25.5422535,42.971831 26.6197183,43.0352113 C26.6830986,43.0352113 26.6830986,43.0352113 26.7464789,43.0352113 C26.8098592,43.0352113 28.5211268,42.4014085 28.5211268,40.8802817 C28.5211268,39.7394366 27.5070423,36.5704225 27.1901408,35.6830986 C27.2535211,35.6197183 27.3169014,35.6197183 27.3802817,35.556338 C28.7112676,34.5422535 29.915493,33.5915493 30.5492958,32.5140845 C30.7394366,32.1338028 30.9929577,31.6901408 31.3098592,31.2464789 C31.7535211,30.4859155 32.3239437,29.5985915 32.7676056,28.584507 L33.6549296,28.9014085 C34.415493,29.1549296 40.6901408,30.9929577 42.9084507,30.5492958 C43.3521127,33.4647887 43.8591549,37.0140845 43.3521127,38.8521127 C42.971831,40.3732394 42.3380282,40.943662 42.1478873,41.1338028 C41.6408451,41.1971831 39.4225352,41.7042254 39.6126761,43.2887324 C39.6760563,44.2394366 41.8309859,44.4929577 44.3661972,44.4929577 C46.0140845,44.4929577 47.7887324,44.3661972 49.1830986,44.2394366 C49.8169014,44.1126761 50.8309859,43.6690141 50.8309859,42.7183099 C50.8309859,42.528169 51.2746479,42.0211268 51.7183099,41.5140845 C52.4788732,40.5633803 53.556338,39.2323944 54.6971831,37.2042254 C55.2042254,38.2183099 55.8380282,39.4859155 55.9647887,39.8661972 C55.8380282,39.9929577 55.5211268,40.1830986 55.2676056,40.3732394 C54.6971831,40.7535211 54.1267606,41.1338028 53.9366197,41.5140845 C53.8098592,41.8309859 53.8098592,42.1478873 54,42.4014085 C54.3169014,42.8450704 55.0774648,43.0352113 56.4084507,43.0352113 C56.6619718,43.0352113 56.8521127,43.0352113 57.1056338,43.0352113 C57.3591549,43.0352113 57.6126761,43.0352113 57.8028169,42.971831 C59.7042254,42.9084507 60.9084507,42.8450704 61.5422535,40.3098592 C62.3661972,37.5211268 62.7464789,33.2746479 58.2464789,27.8239437 Z M6.97183099,4.11971831 C7.03521127,3.99295775 7.09859155,3.92957746 7.22535211,3.92957746 C7.92253521,3.73943662 8.74647887,4.43661972 9.25352113,5.00704225 C8.61971831,5.26056338 7.98591549,5.57746479 7.6056338,6.02112676 C7.41549296,6.21126761 7.28873239,6.40140845 7.09859155,6.5915493 C6.84507042,5.70422535 6.71830986,4.56338028 6.97183099,4.11971831 Z M17.6830986,26.3028169 C17.1126761,24.084507 16.1619718,20.7253521 15.8450704,19.584507 C17.3028169,19.584507 18.6971831,19.584507 19.8380282,19.584507 L19.9014085,19.584507 C20.7887324,19.584507 21.6126761,20.2183099 21.8661972,21.1056338 L23.3873239,26.6197183 C23.0704225,27.1267606 21.7394366,29.2816901 20.0915493,31.1830986 C19.584507,30.4859155 18.2535211,28.7746479 17.6830986,26.3028169 Z M28.0140845,40.7535211 C28.0140845,41.6408451 27,42.1478873 26.7464789,42.2112676 C25.6690141,42.1478873 24.7183099,42.2112676 23.9577465,42.2112676 C23.4507042,42.2112676 23.0704225,42.2112676 22.7535211,42.2112676 L20.8521127,42.2112676 C20.7253521,42.1478873 20.5352113,41.9577465 20.5352113,41.8309859 C20.5352113,41.8309859 20.5352113,41.7042254 20.5985915,41.5774648 C20.6619718,41.5774648 20.7887324,41.5774648 20.8521127,41.5774648 C20.8521127,41.5774648 20.8521127,41.5774648 20.8521127,41.5774648 C21.6126761,41.5774648 22.7535211,41.1971831 23.5140845,39.5492958 C24.2112676,38.0915493 25.4788732,37.0140845 26.8732394,35.9366197 C27.1267606,37.0774648 28.0140845,39.8028169 28.0140845,40.7535211 Z M51.2746479,40.8802817 C50.6408451,41.7042254 50.2605634,42.1478873 50.2605634,42.528169 C50.2605634,43.0985915 49.3098592,43.3521127 49.1830986,43.3521127 C44.7464789,43.7323944 40.6267606,43.6056338 40.4366197,43.0352113 C40.3098592,41.9577465 42.4647887,41.6408451 42.528169,41.6408451 C42.5915493,41.6408451 42.5915493,41.6408451 42.6549296,41.5774648 C42.7183099,41.5774648 43.6690141,40.943662 44.1760563,38.8521127 C44.7464789,36.8239437 44.1760563,33.1478873 43.6690141,29.915493 C43.7323944,29.5352113 44.1760563,25.7323944 47.8521127,22.1197183 C47.9788732,21.9929577 47.9788732,21.7394366 47.8521127,21.6126761 C47.7253521,21.4859155 47.471831,21.4859155 47.3450704,21.6126761 C43.7957746,25.0985915 43.0985915,28.7112676 42.971831,29.6619718 C41.5774648,30.0422535 36.8873239,28.9014085 33.971831,28.0140845 L33.1478873,27.7605634 C33.8450704,26.1760563 34.2887324,24.4014085 34.0352113,22.4366197 L34.0985915,20.7253521 C34.0985915,20.5352113 33.971831,20.3450704 33.7816901,20.3450704 C33.5915493,20.3450704 33.4014085,20.471831 33.4014085,20.6619718 L33.3380282,22.4366197 C33.3380282,22.4366197 33.3380282,22.5 33.3380282,22.5 C33.5915493,24.4647887 33.084507,26.2394366 32.3873239,27.7605634 C32.3873239,27.7605634 32.3873239,27.8239437 32.3873239,27.8239437 C32.3873239,27.8239437 32.3873239,27.8239437 32.3873239,27.8239437 C31.8802817,28.8380282 31.3098592,29.7887324 30.8028169,30.6760563 C30.5492958,31.1197183 30.2957746,31.5633803 30.0422535,31.943662 C29.471831,32.8943662 28.3309859,33.8450704 27.0633803,34.7957746 C25.4788732,36 23.6408451,37.3943662 22.7535211,39.2323944 C22.2464789,40.3098592 21.5492958,40.8802817 20.6619718,40.8802817 C20.6619718,40.8802817 20.6619718,40.8802817 20.6619718,40.8802817 C19.6478873,40.8802817 18.5704225,40.056338 18.1901408,39.2323944 C17.4929577,37.9014085 17.3028169,34.9225352 19.5211268,32.6408451 C19.7746479,32.3873239 20.028169,32.1338028 20.2816901,31.8169014 C20.2816901,31.8169014 20.2816901,31.8169014 20.2816901,31.8169014 C20.2816901,31.8169014 20.2816901,31.8169014 20.2816901,31.8169014 C22.3098592,29.5985915 23.8943662,26.8732394 23.9577465,26.7464789 C24.0211268,26.6830986 24.0211268,26.556338 24.0211268,26.4929577 L22.5633803,20.915493 C22.2464789,19.7112676 21.1690141,18.8873239 19.9014085,18.8873239 L19.8380282,18.8873239 C16.3521127,18.8873239 10.5211268,18.8239437 8.61971831,19.0774648 C6.02112676,19.3309859 3.67605634,19.0774648 2.97887324,18.9507042 C2.47183099,18.8239437 1.71126761,17.4929577 1.26760563,16.6690141 C1.07746479,16.3521127 0.887323944,16.0352113 0.76056338,15.8450704 C0.633802817,15.6549296 0.697183099,15.4014085 0.823943662,15.2112676 L3.99295775,12.6760563 C4.11971831,12.6126761 4.11971831,12.4859155 4.11971831,12.3591549 C4.05633803,11.8521127 3.99295775,11.1549296 4.11971831,10.9014085 C4.62676056,9.95070423 5.64084507,8.93661972 6.65492958,7.98591549 C7.22535211,7.47887324 7.73239437,6.97183099 8.11267606,6.46478873 C8.49295775,6.02112676 9.19014085,5.70422535 9.88732394,5.51408451 C9.88732394,5.51408451 9.88732394,5.51408451 9.88732394,5.51408451 C11.0915493,5.13380282 12.4225352,5.07042254 12.4225352,5.07042254 C18.1901408,4.43661972 19.9647887,3.23239437 20.0915493,3.16901408 C24.1478873,0.0633802817 27.2535211,0.38028169 28.8380282,1.71126761 C30.7394366,3.29577465 33.6549296,3.73943662 33.7816901,3.73943662 C33.7816901,3.73943662 33.8450704,3.73943662 33.8450704,3.73943662 C52.1619718,2.4084507 55.6478873,11.9788732 57.4859155,17.1126761 C59.1971831,21.9295775 58.8169014,23.1971831 57.3591549,27.9507042 C57.1056338,28.8380282 56.7887324,29.915493 56.4084507,31.056338 C55.0140845,36.3169014 52.6056338,39.2957746 51.2746479,40.8802817 Z M61.0352113,39.9929577 C60.528169,42.084507 59.8943662,42.084507 57.9295775,42.1478873 C57.6760563,42.1478873 57.4859155,42.1478873 57.1690141,42.2112676 C55.0774648,42.3380282 54.6971831,41.9577465 54.6338028,41.8309859 C54.6338028,41.8309859 54.5704225,41.7676056 54.6338028,41.6408451 C54.6971831,41.3873239 55.3309859,41.0704225 55.7112676,40.8169014 C56.4084507,40.3732394 56.915493,40.056338 56.7253521,39.6126761 C56.5985915,39.2323944 55.4577465,37.0140845 55.1408451,36.3169014 C55.8380282,34.9225352 56.5352113,33.2746479 57.1056338,31.3098592 C57.4225352,30.2957746 57.6760563,29.4084507 57.9295775,28.584507 C61.9859155,33.6549296 61.6690141,37.5211268 61.0352113,39.9929577 Z"></path>
            <path d="M7.10126594,10.584507 C6.46746312,10.584507 5.95774648,10.9014085 5.95774648,11.5352113 C5.95774648,12.1690141 6.46478873,12.5154393 7.09859155,12.5154393 C7.73239437,12.5154393 8.23943662,12.1690141 8.23943662,11.5352113 C8.3028169,10.9014085 7.79844904,10.584507 7.10126594,10.584507 Z M6.89218382,12.1256052 C6.63085341,12.1256052 6.30563655,11.8163007 6.30563655,11.4505078 C6.30563655,11.1578735 6.5655208,10.8579996 6.89218382,10.8579996 C7.21884684,10.8579996 7.57324219,11.0847149 7.57324219,11.4505078 C7.57324219,11.7431421 7.21884684,12.1256052 6.89218382,12.1256052 Z"></path>
            <path d="M13.1830986,5.83098592 C13.1830986,5.83098592 13.1197183,5.83098592 13.1197183,5.83098592 C12.9929577,5.83098592 12.9295775,5.8943662 12.8028169,5.95774648 C12.0422535,6.33802817 11.7253521,7.54225352 11.7253521,7.73239437 C11.7253521,7.79577465 11.7253521,7.92253521 11.7887324,7.98591549 C11.8521127,8.04929577 11.915493,8.11267606 11.9788732,8.11267606 C13.5,8.49295775 13.943662,10.3309859 13.943662,10.3309859 C14.0070423,10.4577465 14.1338028,10.584507 14.2605634,10.584507 C14.2605634,10.584507 14.2605634,10.584507 14.2605634,10.584507 C14.4507042,10.584507 14.5774648,10.4577465 14.5774648,10.3309859 C14.5774648,10.2042254 15.0211268,7.98591549 14.4507042,6.71830986 C15.0211268,6.97183099 15.7183099,7.41549296 16.3521127,8.42957746 C16.415493,8.55633803 16.5422535,8.61971831 16.6690141,8.61971831 C16.7323944,8.61971831 16.7957746,8.61971831 16.8591549,8.55633803 C17.0492958,8.42957746 17.0492958,8.23943662 16.9859155,8.04929577 C15.4014085,5.57746479 13.2464789,5.83098592 13.1830986,5.83098592 Z M14.0704225,8.93661972 C13.7535211,8.42957746 13.2464789,7.85915493 12.4859155,7.54225352 C12.6126761,7.16197183 12.8661972,6.71830986 13.1197183,6.52816901 C13.2464789,6.46478873 13.3098592,6.46478873 13.4366197,6.52816901 C13.943662,6.71830986 14.1338028,7.85915493 14.0704225,8.93661972 Z"></path>
        </g>
    </g>
</svg>