<?xml version="1.0" encoding="UTF-8"?>
<svg width="100px" height="100px" viewBox="0 0 100 100" version="1.1" xmlns="http://www.w3.org/2000/svg" xmlns:xlink="http://www.w3.org/1999/xlink">
    <!-- Generator: Sketch 54.1 (76490) - https://sketchapp.com -->
    <title>Custom Preset 2</title>
    <desc>Created with Sketch.</desc>
    <g stroke="none" stroke-width="1" fill="none" fill-rule="evenodd">
        <g transform="translate(20.000000, 25.000000)" fill-rule="nonzero">
            <path d="M59.7027198,6.07213623 C59.6735466,6.02281336 58.9833269,4.90282231 56.6374791,4.70613197 C56.5450324,3.9807495 56.3183674,3.27891306 55.969066,2.63648434 C55.9645692,2.61446327 55.9575557,2.59303216 55.9481636,2.57261307 C55.934832,2.55301731 55.919208,2.53508365 55.9016235,2.519193 C55.1683204,1.26356189 53.7294202,0 50.8850429,0 C45.5783148,0 43.2547219,2.33502092 41.0342872,6.36807471 C39.5037715,9.14880619 39.1903909,10.2639892 39.1491873,10.6952672 C38.5431771,11.2528575 35.2791421,14.3162935 32.4214174,18.1761154 C29.06505,22.7090143 26.5649177,25.8741043 26.0864258,26.3156055 C25.5847748,26.7787594 21.8109719,28.809422 19.4467741,29.6659565 L19.0455735,29.8115193 C16.7634849,30.6391825 13.9235053,31.6701536 8.54098883,32.986835 C2.92027288,34.3612554 0.906153061,34.6223061 0.886604504,34.624712 C0.764270083,34.6400377 0.662870822,34.7268568 0.628887891,34.8453715 C0.59490496,34.9638863 0.634890559,35.0912461 0.730515389,35.1690695 L1.07968547,35.4529763 C0.649914083,35.7940271 7.10542736e-15,36.4051508 7.10542736e-15,36.9861984 C0.00409539671,37.0900285 0.05262515,37.1870884 0.133231753,37.2526631 C0.282103337,37.3645416 0.731122701,37.7073959 15.8786826,33.5155466 C16.4341664,33.566073 20.8630067,33.9498291 24.6927538,33.5456215 C24.7325794,33.7224981 24.8151941,33.8869019 24.9333529,34.0244152 C25.1736527,34.3071209 25.5501913,34.4827586 26.0569546,34.5501259 C25.1252316,35.7693651 22.749012,39.0673862 22.3724697,41.4619557 C22.3540221,41.5805051 22.4060678,41.6989821 22.5058542,41.7655925 C22.6056406,41.8322029 22.7350186,41.8348315 22.8374282,41.7723293 C22.8675031,41.7536824 25.8747005,39.9124939 28.4006971,38.2006259 C30.4743656,36.7961244 31.7327031,35.9263571 32.1314966,35.6496679 C32.7369639,35.8800276 33.3563436,36.0720106 33.9859549,36.224476 L39.5197082,45.2536959 L38.5001663,45.3819336 C38.1260336,45.0974245 36.8878471,44.3275052 35.1696645,45.0059962 C35.0115377,45.0684494 34.9339789,45.2472648 34.9964321,45.4053915 C35.0588852,45.5635183 35.2377006,45.6410771 35.3958273,45.578624 C37.0574695,44.9235915 38.154602,45.8895987 38.1994162,45.9305005 C38.2563135,45.9826422 38.3306609,46.0116086 38.4078364,46.0117029 C38.4207086,46.0117915 38.4335714,46.0109876 38.4463324,46.0092971 L39.8727882,45.8298628 L40.8992088,47.5046244 L37.0090496,47.5046244 C36.775325,47.2023288 36.4538981,46.9796411 36.0887547,46.8670352 C35.3834975,46.6438793 34.5296682,46.7924491 33.5528341,47.3097387 C33.4554866,47.3612059 33.3929912,47.4606979 33.3888894,47.5707369 C33.3847875,47.6807759 33.4397024,47.7846444 33.532948,47.8432162 C33.6261937,47.901788 33.7436039,47.9061646 33.8409514,47.8546974 C35.9004854,46.7641789 36.5464969,47.9070285 36.5708571,47.952742 C36.6236021,48.0556706 36.7294846,48.1204538 36.8451406,48.1205598 L41.379243,48.1205598 L44.3780218,49.5587394 C44.4723984,49.6027696 44.5824663,49.5971367 44.671855,49.5437019 C44.7202749,49.513627 45.8625234,48.84115 46.7425164,49.8901656 C46.8518855,50.0202659 47.0459591,50.0372068 47.1762154,49.9280235 C47.3064718,49.8188403 47.3236897,49.6247911 47.2146925,49.494379 C46.3130444,48.4201015 45.1241807,48.6240094 44.5016289,48.9349865 L43.1714856,48.2969095 L47.3734856,48.7238623 C47.3835671,48.7250531 47.3937095,48.7256553 47.4038611,48.7256658 C47.5205747,48.7250773 47.6272035,48.6594062 47.6802497,48.5554422 C47.8090542,48.3269339 48.0214243,48.1572531 48.2727266,48.0820614 C48.6321237,47.9822133 49.0691126,48.0850696 49.5731695,48.3924361 C49.6670795,48.4497272 49.7844221,48.4525594 49.8809868,48.3998659 C49.9775515,48.3471723 50.0386647,48.2469602 50.041301,48.1369856 C50.0439374,48.027011 49.9876964,47.9239856 49.8937676,47.8667254 C49.2315138,47.4625178 48.6252055,47.3374053 48.0919767,47.4931939 C47.7532219,47.5960698 47.4571241,47.8063469 47.2483743,48.0922871 L44.7001264,47.8333048 C44.9713647,47.5869897 45.3577151,47.3363151 45.7768098,47.405375 C45.9445423,47.4332223 46.103101,47.3198527 46.1309999,47.1521287 C46.1588988,46.9844048 46.045578,46.8258112 45.8778626,46.7978607 C44.9348656,46.6421103 44.1961126,47.4206009 43.9259634,47.7545833 L41.6321818,47.5214641 L40.543723,45.7454587 L42.6253246,45.4836184 L46.1879307,46.7792102 C46.2216454,46.791579 46.2572808,46.7978917 46.2931928,46.797857 C46.3774289,46.7977848 46.4579617,46.763224 46.5160481,46.7022183 C46.5232656,46.6956019 47.1849157,46.0171109 47.9560373,46.4315442 C48.05274,46.4838712 48.1700131,46.480633 48.263681,46.4230494 C48.3573488,46.3654659 48.413181,46.2622853 48.4101461,46.1523748 C48.4071112,46.0424642 48.3456703,45.9425218 48.2489675,45.8901949 C48.067457,45.790798 47.8692769,45.7254851 47.6642354,45.6974884 C47.7208892,45.6253464 48.3539673,44.8766683 49.6270035,45.3446338 C49.7301531,45.3826701 49.8457594,45.3627875 49.9302746,45.2924754 C50.0147898,45.2221634 50.0553741,45.112104 50.0367397,45.0037557 C50.0181053,44.8954073 49.9430832,44.8052307 49.8399336,44.7671944 C48.5746791,44.29983 47.6703258,44.7942623 47.2721334,45.209898 L44.9824133,45.0361032 C45.1351185,44.7903154 45.4145905,44.4680999 45.841467,44.4483998 C45.9230239,44.4448384 45.9998112,44.4089687 46.0548817,44.3487072 C46.1099521,44.2884456 46.1387784,44.2087464 46.1349984,44.1271993 C46.132709,44.0450882 46.0971346,43.9674364 46.036446,43.9120795 C45.9757574,43.8567226 45.8951708,43.8284184 45.8131956,43.8336679 C44.9028271,43.8750957 44.4521915,44.6806924 44.3129815,44.9852762 L42.8231803,44.8721904 L36.7040137,36.7316853 C37.9295094,36.8888686 39.163867,36.9668493 40.3994007,36.965142 C46.37229,36.965142 50.5845896,35.1395921 54.4844116,30.8617286 C57.0943923,27.9981402 58.1502127,24.8371857 58.5815621,22.345323 C58.5864817,22.327283 58.5896792,22.3088171 58.5911116,22.2901733 C58.7986452,21.0319476 58.8960683,19.7580215 58.8822741,18.4828697 C58.8822741,15.0886087 57.2495045,11.4796129 56.9914609,10.9310448 C56.9950702,10.5099914 56.9947697,8.44384473 56.6913131,7.14941832 C57.3526614,6.98280287 58.9153572,6.5972421 59.471744,6.53528762 C59.5756161,6.52357814 59.6664824,6.4600399 59.7131325,6.36649679 C59.7597825,6.27295368 59.7558628,6.16214561 59.7027198,6.07213254 L59.7027198,6.07213623 Z M1.75547007,35.7200422 C1.83603203,35.665344 1.88598866,35.5757757 1.89019527,35.4784905 C1.89440189,35.3812052 1.85236312,35.287659 1.77682332,35.226211 L1.65471905,35.1269641 C2.64749357,34.9543335 4.79815518,34.536292 8.68714907,33.5847198 C14.102453,32.2608197 16.9595704,31.2232334 19.2554917,30.3901561 L19.6566911,30.2445934 C21.9914114,29.3994869 25.9029621,27.3237119 26.5041606,26.7679263 C27.0834047,26.2337958 29.8400766,22.6975789 32.9164447,18.5430245 C36.0264971,14.3421517 39.6237643,11.0958593 39.6595539,11.0633785 C39.7446977,11.0020864 39.7838956,10.8950959 39.7585002,10.7933056 C39.7569973,10.7626321 39.7383505,9.99932674 41.5738256,6.66521549 C43.682983,2.83426489 45.8829675,0.615935392 50.8850367,0.615935392 C53.2831023,0.615935392 54.5601224,1.58051485 55.2474866,2.60505686 C54.6632725,2.89967261 54.058636,3.1519117 53.4382515,3.35982408 C52.949683,3.29760722 50.2690631,2.96057476 49.1578307,2.96057476 C47.9599448,2.96057476 44.7780127,2.96057476 42.5551721,7.02671167 C41.6141263,8.74940535 40.7945823,11.0729982 41.0857091,12.3812585 C41.2862713,13.2839587 42.6517865,13.611927 44.94102,13.9237295 C43.8471187,14.2050432 42.4793837,14.695754 40.7581929,15.5331157 C37.1292346,17.2977275 33.6363648,20.2206009 31.0957816,22.7162972 C31.0679842,22.7356031 31.0436664,22.7594885 31.023865,22.7869351 C29.3183509,24.4688403 28.0476454,25.950447 27.4846041,26.7324337 C26.8708491,27.584871 26.2993498,28.7841477 25.8332628,29.914516 C25.2664631,30.3954901 23.517565,30.9163879 22.1757707,31.1311991 C20.7995407,31.3513467 15.9649887,32.8454705 15.7598773,32.9092309 L15.7595767,32.9094193 C10.6363419,34.3271252 2.50208108,36.4780825 0.720590206,36.7046974 C0.928707383,36.3720677 1.40599818,35.9570332 1.75547007,35.7200422 Z M48.0564877,14.3186932 C48.0697527,14.3203843 48.0831158,14.3211881 48.0964878,14.321099 C48.0997215,14.321099 48.10254,14.3194828 48.1057736,14.3193744 C48.192298,14.3415443 48.2760469,14.3733992 48.3554332,14.4143356 C48.4549819,14.5376459 48.4652064,14.9406475 47.7930312,15.5878613 C46.9121032,16.4364195 46.5913105,17.421942 46.3811669,18.350318 C39.1637382,22.2969856 35.3309841,22.2181101 35.2950812,22.2043489 C35.2911393,22.2042725 35.2879019,22.2061906 35.2839944,22.2062657 C35.2734819,22.2074955 35.2630414,22.2092772 35.252716,22.2116034 C35.2163475,22.2151457 35.1808708,22.2249785 35.1478678,22.2406632 C35.1412157,22.2438969 35.1334315,22.2427315 35.1269654,22.246453 C33.6683294,23.1029888 31.9044321,24.0124556 31.4361647,24.0798229 C31.3872927,23.9379828 31.4230441,23.5345267 31.5426304,23.1361089 C34.0384006,20.6856715 37.4664223,17.8185526 41.0276745,16.086498 C44.1870535,14.5502689 46.1097426,14.2158344 47.1879301,14.2158344 C47.2121413,14.2158344 47.2314644,14.2174888 47.2548096,14.2177894 C47.5211918,14.2511004 47.7792343,14.2826412 48.0564877,14.3186932 Z M39.1562891,29.9411725 C38.9417797,28.5250545 39.4535395,27.0337111 39.6344064,26.5681871 C40.1508884,26.5610392 40.6652921,26.5011932 41.1696205,26.3895794 C42.365289,26.104883 43.891439,25.2268067 44.7841055,24.6676704 C44.7360718,24.8136031 44.6715712,24.9535894 44.5918511,25.0849223 C44.5267394,25.17384 43.3725368,26.7042435 39.1562891,29.9411725 Z M26.9505881,34.5332813 C27.794342,34.3112156 30.4866153,33.0984795 38.8009165,27.1143875 C38.7445634,27.3118305 38.6894507,27.5358105 38.6405787,27.774759 L26.8410021,35.6971836 L26.9505881,34.5332813 Z M45.0837261,23.7389236 C44.635346,24.0406888 42.5046814,25.4382351 41.0270647,25.7904812 C39.9762856,26.0222839 38.8873427,26.0197553 37.8376515,25.7830752 C39.4289932,25.4562365 42.4373547,24.6613916 45.3062376,22.9419303 C45.230193,23.2253961 45.1556821,23.4927995 45.0837273,23.7389261 L45.0837261,23.7389236 Z M31.0830773,24.6097466 C31.2376623,24.7288439 31.5904418,24.9995179 35.012973,23.0253969 C35.0268451,23.1710731 35.0469578,23.3405452 35.0707169,23.5163714 C31.7003665,25.362974 28.6926431,27.3599523 27.2176922,28.3732535 C27.4423921,27.9284704 27.6986334,27.5003374 27.9844529,27.092135 C28.4622315,26.428493 29.4613601,25.2500053 30.8020642,23.8777222 C30.8053348,24.1683969 30.8720258,24.4467824 31.0830773,24.6097466 Z M26.6830714,29.4970424 C29.4209422,27.5695141 32.2584089,25.7874866 35.1836869,24.1583608 C35.2217703,24.3501616 35.2754184,24.5385404 35.3440986,24.7216276 C35.3929976,24.8278898 35.4506392,24.9299065 35.5164287,25.0266252 C32.0369419,27.0185603 27.595847,30.1782411 25.9212726,31.390413 C26.1358202,30.8080855 26.3951413,30.1488425 26.6830714,29.4970424 Z M25.3123293,33.4615254 C25.2899265,33.3997193 25.2796264,33.3341797 25.2819908,33.2684813 C25.3024805,33.2011128 25.4026292,32.8782247 25.5656734,32.3971336 C25.5777457,32.3905554 25.5920638,32.3930364 25.6034179,32.3847286 C25.6627029,32.3404047 31.5797282,27.9767155 35.9075157,25.5112062 C36.1000773,25.6904441 36.3154731,25.8434587 36.5481131,25.966279 L36.5486059,25.9665045 C36.6001091,25.9938717 36.6556727,26.0164285 36.7090558,26.0416917 C32.7406974,28.3805844 26.0255948,32.9728065 25.3123293,33.4615254 Z M45.5311304,22.0764943 C41.7638651,24.5172664 37.4218655,25.2526748 36.7243901,25.3575981 C36.4061932,25.181467 36.1451179,24.9178609 35.9720645,24.5979798 C36.8705171,24.4486573 40.4278963,23.728061 45.7710533,21.0990208 C45.6929712,21.4259729 45.612408,21.7542036 45.5311304,22.0764943 L45.5311304,22.0764943 Z M46.184022,19.2816653 C46.1150002,19.6039941 46.0363206,19.9572614 45.9525534,20.3228609 C40.234362,23.2004335 36.420968,23.9019321 35.7775471,24.0044878 C35.6990997,23.6111775 35.6442402,23.2135284 35.6132624,22.8136692 C36.677616,22.7628434 40.2386797,22.3289736 46.2137495,19.1381696 L46.184022,19.2816653 Z M17.5281748,33.0167917 C19.1105695,32.5444259 21.423636,31.8755595 22.2732179,31.7399206 C23.1687744,31.5965013 24.5224119,31.2688335 25.4679306,30.8384992 C25.1118806,31.7789426 24.8556798,32.5669827 24.7454175,32.9182211 C22.1655437,33.203106 19.2866211,33.1179566 17.5281748,33.0167917 Z M25.8081524,33.8685897 C27.0841242,32.9958511 33.7726824,28.4406208 37.4539336,26.3199602 C37.8180834,26.4190603 38.1899342,26.4873087 38.5655417,26.5239814 C28.6379074,33.6767492 26.8030704,33.9542663 26.6798008,33.9642654 C26.6767938,33.9642654 26.673974,33.9656562 26.6709658,33.9657695 C26.669049,33.9657313 26.6675831,33.9642654 26.6656687,33.9642654 L26.6590524,33.9642654 C26.3721181,33.9783821 26.0847869,33.9460744 25.8081524,33.8685897 L25.8081524,33.8685897 Z M26.2584886,35.3121882 L26.1670222,36.2860535 C26.1559106,36.4045263 26.2140213,36.5188056 26.3162998,36.5796198 C26.4185783,36.640434 26.5467351,36.6369082 26.6455153,36.5705627 L38.5172339,28.5994546 C38.5006172,28.7741523 38.488625,28.9518201 38.4860676,29.1335112 L25.3721404,37.9810782 L25.5967621,36.2393619 C25.8394752,35.8872218 26.0636017,35.5761338 26.2584886,35.3121882 L26.2584886,35.3121882 Z M28.0554296,37.6905612 C26.2328867,38.9254389 24.1577141,40.2288876 23.1423828,40.8598604 C23.4688088,39.7588919 24.1386164,38.5155167 24.8236868,37.4177437 L24.6741008,38.5783741 C24.6627595,38.6661863 24.6898004,38.7546277 24.748309,38.8210833 C24.8068177,38.8875388 24.8911212,38.9255653 24.9796626,38.9254389 C25.0411261,38.9255539 25.1011915,38.9071044 25.1519927,38.8725067 L38.5251659,29.8497147 C38.5447267,30.0199124 38.5735285,30.1889204 38.6114437,30.3559902 C36.8863429,31.6587625 34.6977902,33.2146905 31.9236727,35.0439632 C31.9225073,35.0447146 31.9219813,35.0459933 31.9208159,35.0467829 C31.9196876,35.0475725 31.9181834,35.0473841 31.9170563,35.0481737 C31.9158527,35.0487687 30.6012717,35.9660554 28.0554296,37.690555 L28.0554296,37.6905612 Z M46.2234184,46.1368154 L44.8723764,45.6455454 L46.8266471,45.7939279 C46.6082181,45.8745614 46.404451,45.9903846 46.2234184,46.1368093 L46.2234184,46.1368154 Z M42.0955919,44.9297188 L40.1906047,45.1693029 L34.8271477,36.4179007 C35.1394763,36.4830506 35.4779328,36.545945 35.8376292,36.6050428 L42.0955919,44.9297188 Z M54.0290765,30.4466965 C50.2579763,34.5838114 46.1819155,36.3492054 40.3994007,36.3492054 C36.550519,36.3492054 33.861892,35.5956774 32.7668241,35.2229355 C35.3906781,33.4792643 37.4844975,31.9826226 39.1420412,30.7237209 C39.1438077,30.7223658 39.1456137,30.7211635 39.1473383,30.7197358 C43.7600871,27.2159639 45.0195136,25.5438323 45.0886868,25.4494353 C45.6528935,24.6801172 46.7401032,19.625117 46.7861173,19.410381 L46.862508,19.0416623 C47.0751388,18.0004667 47.2946853,16.9231809 48.2200925,16.0317585 C48.7458032,15.525297 49.014372,15.0446987 49.0185825,14.6025963 C49.0293601,14.3643061 48.9398051,14.1324008 48.7716675,13.9632024 C48.6861412,13.8966234 48.257874,13.6157236 47.2621663,13.5978664 C47.0676195,13.5736934 46.8624711,13.5473413 46.6745393,13.5241082 C44.1873393,13.2167416 41.8378833,12.9268196 41.687207,12.2477262 C41.4685623,11.265478 42.0478064,9.24022948 43.095919,7.32264892 C45.1431219,3.57651015 47.9566347,3.57651015 49.1578319,3.57651015 C49.7312493,3.57651015 50.7767306,3.67447961 51.6908219,3.77395317 C51.370448,3.82327605 51.0448116,3.86673398 50.7232342,3.90793637 C49.5470021,4.05891322 48.3304693,4.21470176 47.3689732,4.72357033 C45.9611642,5.46882752 44.4748591,7.20174819 44.0216292,8.28985965 C43.7028346,9.05496721 43.6682486,9.95661531 43.933208,10.5875882 C44.0669954,10.9391244 44.3386086,11.2207326 44.6850828,11.3671308 C44.8634269,11.4387099 45.1304928,11.5271298 45.4525962,11.6335955 C46.582813,12.0071258 48.4745292,12.6320847 49.3960265,13.5229046 C50.5199275,14.6092126 50.5081988,15.2131188 49.9121126,16.3673953 C49.2158765,17.7165586 48.4029477,20.0275199 48.4029477,22.1008915 C48.4029477,24.4250855 50.1115069,25.9865815 51.7081876,25.9865815 C53.1017488,25.9865815 55.5519188,25.9836114 57.6939339,23.5588105 C57.0644836,26.1239557 55.8048022,28.4914534 54.0290765,30.4466965 Z M58.2663424,18.4828734 C58.2795986,19.7137132 58.1863192,20.9433916 57.9875479,22.1581476 C55.8671114,25.3671476 53.1647627,25.3706436 51.707292,25.3706436 C50.4089556,25.3706436 49.0188905,24.0569692 49.0188905,22.100889 C49.0188905,20.1381961 49.7948249,17.9379123 50.459482,16.650101 C51.1346704,15.3424418 51.2215814,14.4311704 49.8242987,13.0802023 C48.8011487,12.0913377 46.8261247,11.4387111 45.6459827,11.0489385 C45.3386174,10.9472858 45.0835807,10.8630763 44.9136577,10.7957078 C44.7208168,10.7093895 44.5717134,10.5478971 44.501029,10.3487937 C44.2998275,9.87000002 44.3356171,9.13797559 44.5900514,8.52685681 C44.9548601,7.65107429 46.2983088,5.98732686 47.6570967,5.2679328 C48.5196465,4.81139533 49.6796376,4.66282432 50.8017352,4.51906623 C51.416467,4.44026961 52.0522528,4.35906716 52.6384138,4.22674329 C52.9532234,4.15587869 53.2555897,4.06659393 53.547617,3.97219567 C53.5555121,3.97020374 53.5626927,3.96742094 53.5703992,3.96486481 C54.2540162,3.74070749 54.9193088,3.46411095 55.5603473,3.13754039 C55.7965059,3.62578662 55.9513251,4.14933025 56.0186895,4.6874913 L55.28471,4.6874913 C55.2007548,4.68748539 55.1204513,4.72182334 55.0624559,4.78252767 C55.0534337,4.79155112 54.155395,5.72267174 53.3656266,6.02402306 C53.2446272,6.07013518 53.1654148,6.1870321 53.1674336,6.3165045 C53.1694523,6.4459769 53.2522706,6.56034742 53.3746488,6.60266479 C53.8393105,6.76326625 54.3150935,6.99845255 54.3848666,7.09048562 C54.4335887,7.20350561 54.5447984,7.27677842 54.6678729,7.27695021 C54.6792249,7.27694056 54.6905686,7.27633818 54.7018578,7.27514552 C55.15672,7.22472219 55.6144232,7.20448998 56.0719605,7.21458182 C56.4062434,8.53100082 56.3752286,10.9684617 56.374928,10.9942164 C56.3743302,11.0422745 56.3848269,11.0898228 56.4056016,11.1331628 C56.4242472,11.1716501 58.2663387,15.0158261 58.2663387,18.4828734 L58.2663424,18.4828734 Z M56.2894731,6.61596776 C55.7935202,6.58269612 55.2956105,6.59273405 54.8014016,6.64596751 C54.6250885,6.49324342 54.4265169,6.36829908 54.2125341,6.27544295 C54.6438713,5.99203542 55.0459479,5.66642497 55.4128258,5.30342053 L56.3455232,5.30342053 C57.6481453,5.37120176 58.3994559,5.73766484 58.7956563,6.02582159 C57.8852521,6.20818774 56.544697,6.55062934 56.2894731,6.61596776 Z" fill="#000000"></path>
            <path d="M49.7939453,6.64596751 C50.3462301,6.64596751 51,6.55228475 51,6 C51,5.44771525 50.5522847,5 50,5 C49.4477153,5 49,5.44771525 49,6 C49,6.55228475 49.2416606,6.64596751 49.7939453,6.64596751 Z" fill="#000000"></path>
            <path d="M49.7957764,6.31005859 C50.0719187,6.31005859 50.2957764,6.31023208 50.2957764,5.97469402 C50.2957764,5.63915596 50.0719187,5.36714862 49.7957764,5.36714862 C49.519634,5.36714862 49.3988037,5.58206594 49.3988037,5.917604 C49.3988037,6.25314206 49.519634,6.31005859 49.7957764,6.31005859 Z" fill="#FFFFFF"></path>
        </g>
    </g>
</svg>