<?xml version="1.0" encoding="UTF-8"?>
<svg width="100px" height="100px" viewBox="0 0 100 100" version="1.1" xmlns="http://www.w3.org/2000/svg" xmlns:xlink="http://www.w3.org/1999/xlink">
    <!-- Generator: Sketch 54.1 (76490) - https://sketchapp.com -->
    <title>Custom Preset 2</title>
    <desc>Created with Sketch.</desc>
    <g stroke="none" stroke-width="1" fill="none" fill-rule="evenodd">
        <g transform="translate(26.000000, 15.000000)" fill="#000000" fill-rule="nonzero">
            <path d="M18.2634314,35.2773465 C17.7909151,35.8912465 17.3226802,36.5085081 16.8449221,37.1182895 C15.7814664,38.3278056 14.5925642,39.42096 13.2982174,40.3793616 C12.7123725,40.8011891 12.0612264,41.1239381 11.3707756,41.3347233 C10.6662025,41.5907803 9.94290866,41.792048 9.20734419,41.9367314 C8.29311498,42.1340911 7.33870784,41.906233 6.61223256,41.3171663 C5.87603776,40.7704948 5.22035708,40.1230341 4.66444186,39.3937942 C3.5037205,37.8952903 3.12140239,35.9355511 3.63377326,34.11065 C3.8943775,33.2869325 4.39927854,32.5619226 5.08148721,32.0318128 C5.33462674,31.8205593 5.58912558,31.6109988 5.95436279,31.3084442 C5.60934293,31.2424677 5.26112028,31.1945097 4.91111047,31.1647651 C2.81941736,30.9341764 1.07053936,29.4705598 0.474990698,27.4522256 C0.398971532,27.0481421 0.397413002,26.6335703 0.47039186,26.2289267 C0.702946512,25.0172349 0.675377907,23.7486558 1.30016047,22.6189942 C1.74899516,21.7166657 2.54384113,21.0343441 3.50374419,20.7273663 C3.97909302,20.5793407 4.43261163,20.3624872 4.90503837,20.2037012 C6.4679048,19.6935335 8.13303343,19.5796306 9.75081279,19.8722267 C11.552686,20.1680419 13.3589953,20.4367035 15.1604047,20.7351395 C15.560749,20.8385352 15.9686669,20.9099994 16.3803174,20.9488593 C16.1632914,20.74952 15.927229,20.5719573 15.6755233,20.4187233 C14.1416248,19.5606605 12.8626037,18.3113119 11.9687791,16.7979733 C11.7655837,16.5021581 11.5246779,16.2320477 11.2981791,15.9524872 C10.7319609,15.3027501 10.2933417,14.5520679 10.0053116,13.7397872 C9.73507907,12.9006012 9.33430465,12.1043023 9.01450233,11.2800198 C8.12208287,9.06064992 8.54024807,6.52897607 10.098957,4.71446744 C10.9341277,3.70520899 12.1110114,3.03798969 13.4059116,2.8396314 C14.500371,2.7039158 15.6038632,2.65513214 16.7060291,2.69373837 C17.4943245,2.7222705 18.2373929,3.06910075 18.7655267,3.65501744 C18.950514,3.81395 19.1297628,3.97953256 19.3428558,4.16992442 C19.6883872,3.65666163 19.9732953,3.15293023 20.3348372,2.7120686 C21.2347275,1.57425108 22.463264,0.74124962 23.8533384,0.32637093 C25.1001043,0.0154301719 26.4194514,0.21626251 27.5172279,0.88409186 C27.9089023,1.08894767 28.2617267,1.36714884 28.6496733,1.5802093 C29.3025939,2.05887569 29.7909124,2.72833494 30.0472802,3.49625581 C31.0102767,5.34806512 30.8753884,7.34919419 30.7433814,9.34033605 C30.596764,11.5524012 29.6489151,13.5030895 28.7424151,15.4698616 C28.1050895,16.8526709 27.5049535,18.2525977 26.9834616,19.7233221 C27.2509267,19.445886 27.5090395,19.1586581 27.7875174,18.8927477 C28.9288919,17.8027744 30.0555581,16.6960256 31.2301012,15.6427535 C31.884096,15.0862769 32.5668895,14.5645618 33.2756558,14.0797674 C34.2164314,13.4001733 35.1409279,12.6891442 36.1324616,12.0912221 C37.2213554,11.4206345 38.454353,11.019136 39.7293221,10.9199837 C41.0044787,10.8242426 42.2860407,10.9792264 43.501614,11.3761802 C44.6950764,11.8675274 45.6814463,12.7571849 46.2929128,13.8937953 C46.7464,14.5626116 47.0532816,15.3197907 47.1934058,16.1156116 C47.3509608,17.3356421 47.0986179,18.5734401 46.4760442,19.6344302 C46.1138109,20.3550016 45.4361237,20.8653071 44.6435174,21.0143419 C45.3999401,21.2850731 46.072602,21.7485462 46.5949953,22.358936 C48.2011435,23.858223 48.8037776,26.1465142 48.1444453,28.2424279 C47.6150093,29.9371523 46.7888872,31.5207965 44.9542442,32.1592535 C43.5113259,32.674272 41.9843415,32.91302 40.4530814,32.8630221 C38.532585,32.8216311 36.6473786,32.3387966 34.9434302,31.4519035 C33.8913261,30.9227598 32.8041909,30.4663511 31.6896674,30.085886 C32.0364926,30.433822 32.400801,30.7638811 32.7811791,31.0747826 C34.7080579,32.4386216 36.4087283,34.0966914 37.821,35.9883593 C38.3999163,36.7975756 39.0918419,37.5271547 39.6548372,38.3462767 C40.3146734,39.3193586 40.623726,40.4880166 40.5311721,41.6600686 C40.5076719,41.7682049 40.4976627,41.8788367 40.5013733,41.9894349 C40.8447151,43.6298198 39.7855663,44.6960419 38.9248674,45.8393047 C38.7083111,46.1218959 38.4699218,46.387065 38.211893,46.6323721 C37.8118562,47.1009906 37.2688538,47.4251001 36.6665128,47.5547849 C35.8171565,47.6755768 34.9607298,47.7399577 34.1028605,47.7475047 C32.9498328,47.6884572 31.8734815,47.1518919 31.1323047,46.2666709 C30.9824884,46.1114012 30.8360256,45.952957 30.5872326,45.6891547 C30.4336261,45.9644494 30.2949636,46.2478201 30.1718477,46.5380349 C29.5793983,48.2288447 28.3946973,49.6479114 26.8368605,50.5327721 C26.1486486,50.9047115 25.367894,51.0706169 24.587907,51.0106605 C23.8954219,50.9818532 23.205947,50.9027428 22.5249337,50.7739547 C22.2574494,50.7130055 22.0102794,50.5839009 21.8074419,50.399186 C20.6082276,49.4015412 19.6985375,48.1005166 19.1731791,46.6317047 C18.6236668,45.0014084 18.4788496,43.2619363 18.7512093,41.5632163 C19.1478172,39.3513443 19.7112327,37.1726553 20.4366302,35.0458093 C20.5303924,34.7688252 20.5741588,34.4773762 20.565886,34.1850698 C20.2772578,34.5570918 20.0163328,34.9498029 19.7852151,35.360036 C18.4362128,37.9106269 16.9113394,40.3642428 15.2216465,42.7031012 C13.6811635,45.0754596 12.2848787,47.5383949 11.0403674,50.0785453 C10.1119721,51.9387221 9.16768837,53.792786 8.30932558,55.68535 C7.8854558,56.7082381 7.51733189,57.7533458 7.20657326,58.8160756 C6.45494147,61.1074035 5.7132562,63.4019899 4.98151744,65.6998349 C4.59461822,66.9152302 4.22677093,68.1365891 3.87797558,69.3639116 C3.81236279,69.595164 3.77747674,69.8378116 3.51785,69.8333837 C3.34749581,69.7815244 3.19817673,69.6765729 3.09168837,69.5338488 C2.57977789,68.9042742 2.2893028,68.1237187 2.26509419,67.3126512 C2.19792674,66.9017186 2.14914651,66.4877581 2.08268721,66.0767035 C1.89042213,65.4940919 1.99356109,64.8543693 2.35918721,64.3617035 C2.60707768,63.9295787 2.7982385,63.4673058 2.92794535,62.9863093 C3.82264302,60.9876465 4.73150349,58.9953326 5.63090581,56.9987779 C5.85894302,56.492564 6.05144302,55.9696233 6.29452209,55.4710523 C6.93769186,54.1518128 7.59766163,52.8407291 8.25503488,51.5284326 C8.52842558,50.9826605 8.77765,50.4208047 9.09722442,49.9028535 C10.2912942,47.9675407 11.510507,46.0477419 12.7189756,44.121293 C12.9694616,43.7219512 13.2028872,43.3114826 13.4636047,42.9190837 C14.7980163,40.9108163 16.15285,38.9159058 17.4673442,36.8947453 C17.7644116,36.37111 18.0267812,35.8285367 18.2527605,35.2705256 C18.433355,35.0739287 18.6138736,34.8773128 18.7943163,34.6806779 L18.5931395,34.545114 C18.483207,34.7891915 18.3733043,35.033269 18.2634314,35.2773465 Z M9.13128837,27.7805174 L9.18561163,27.5197674 C9.74986002,27.5669358 10.3105628,27.6497225 10.8643663,27.7676326 C11.5565686,27.9560058 12.2115733,28.2789419 12.9015209,28.4784337 C13.3128594,28.6310352 13.7555773,28.6794372 14.1901721,28.6193209 C15.4631953,28.3056721 16.7113035,27.8911419 17.9276349,27.5278988 C16.001593,27.7003186 13.848214,27.2548744 13.3831535,26.532336 C13.4951954,26.5286503 13.6073157,26.5366815 13.7176884,26.5562988 C15.0827764,27.1237632 16.5789539,27.2997407 18.0384547,27.0644988 C18.1181285,27.0381491 18.2048281,27.0429743 18.281086,27.0780023 C18.6467239,27.2897056 19.1018351,27.2707218 19.4485721,27.0293035 C19.9439279,26.8487035 20.4389581,26.6670942 20.9360151,26.4913291 C21.7950009,26.1648639 22.5140002,25.5503018 22.970207,24.7526105 C23.0818802,24.542047 23.1432428,24.3084706 23.1494802,24.0702081 C23.1821668,23.2962322 23.090513,22.5220228 22.8780105,21.7770733 C22.4199174,19.8949767 22.0381081,17.9944767 21.6080233,16.1053721 C21.183693,14.2414186 20.6622093,12.395836 20.3290174,10.5163767 C20.1380244,9.36773949 19.813019,8.24545592 19.360657,7.1725093 C19.0242616,6.49963288 18.8353121,5.76272366 18.8064279,5.01099884 C18.80154,4.81811658 18.7326168,4.63234262 18.6105174,4.48294651 C18.1658407,3.90653088 17.5217154,3.5172041 16.8046558,3.39143488 C15.3779173,3.19773992 13.9258311,3.33004629 12.557593,3.77840465 C12.3241858,3.86307351 12.0979281,3.9662839 11.880986,4.08704767 C10.5691372,4.75367558 10.0056372,5.99679419 9.47788605,7.25402674 C9.14514811,8.31938827 9.14931526,9.46148098 9.4898186,10.524386 C9.78783275,11.5902471 10.1971773,12.6217904 10.7110907,13.6019767 C10.9189205,14.082186 11.1786045,14.5382461 11.4855186,14.962036 C12.019236,15.7019198 12.6745174,16.3617756 13.1490605,17.134836 C13.7738375,18.1175282 14.6198528,18.9404243 15.6194744,19.5377407 C17.1158384,20.4863709 18.5968674,21.4592488 20.081193,22.4267709 C20.2801314,22.5564337 20.5522605,22.6664802 20.3429035,23.095686 C19.9999035,22.974114 19.6444174,22.852314 19.2919023,22.7224151 C18.245776,22.2794952 17.1773651,21.8911728 16.0909814,21.5590151 C13.7251067,20.9605808 11.3113656,20.5705036 8.87742442,20.3932547 C8.15932214,20.3620883 7.43993924,20.3789966 6.72409419,20.4438663 C5.71435153,20.609381 4.73263436,20.9149455 3.80732442,21.3517256 C2.74421279,21.6490137 1.91670779,22.4849554 1.6302186,23.5510279 C1.38319933,24.6261871 1.19187434,25.7133867 1.05700814,26.8082826 C1.04805701,26.9750051 1.07145702,27.1418843 1.12591744,27.2997151 C1.50194717,28.9146111 2.80067735,30.1522438 4.43180581,30.4500814 C5.16773826,30.582604 5.91138593,30.6679717 6.65820465,30.7056628 C7.44588975,30.7681675 8.17359532,30.2821394 8.4175814,29.5305907 C8.07246076,29.4288003 7.71922445,29.356883 7.36177791,29.3156337 C6.61530116,29.2900756 5.86677326,29.3295849 5.11914884,29.327843 C4.98550844,29.3087423 4.85515949,29.2712149 4.73182093,29.2163314 L4.75615,29.0197128 C6.05289844,28.7791338 7.38754593,28.8391155 8.65748605,29.1950465 C10.0175209,29.7201767 11.2183872,28.9983872 12.5018453,28.8654849 C11.4778246,28.2469933 10.3238169,27.8755233 9.13128837,27.7805174 Z M31.1911047,23.987136 L31.2291244,24.0832558 C32.0348,23.9173558 32.8475895,23.7788372 33.6428058,23.5726547 C33.9920988,23.4816391 34.3166524,23.3137547 34.5927628,23.0812628 C35.9932837,21.8669093 37.555114,20.822143 38.6497674,19.2790174 C38.7630643,19.1649126 38.8935521,19.0692782 39.0364767,18.9955988 C38.174443,20.7780674 36.635086,21.8997849 35.104357,23.2251128 C35.3010968,23.2449514 35.4988933,23.2523432 35.6965651,23.2472442 C37.5363621,22.9762495 39.3562408,22.5839755 41.144307,22.072986 C41.5631648,21.9938294 41.9881079,21.9512134 42.414343,21.9456186 C42.5954814,21.674384 42.8150088,21.4308609 43.0660674,21.222657 C43.6546372,20.8648512 44.3015919,20.6044186 44.9015977,20.2635674 C45.2789646,20.0989373 45.6114676,19.8464119 45.8713419,19.5270779 C46.4110579,18.7138795 46.6664956,17.7449343 46.5978198,16.7713488 C46.4500032,15.5206998 45.916728,14.3470257 45.0719337,13.4130581 C44.5788791,12.810652 43.9435051,12.3405807 43.2232174,12.0453151 C41.242791,11.335417 39.0681031,11.3943213 37.1290093,12.2103849 C36.0317432,12.7449655 34.9968993,13.3991419 34.0433116,14.1610081 C33.3047473,14.6497295 32.5925295,15.1771446 31.9096384,15.7410465 C31.1062012,16.4176779 30.3561593,17.1580663 29.588357,17.8765919 C28.1858425,19.0963566 26.9458126,20.4912192 25.8987058,22.0269407 C25.7327819,22.254647 25.5504286,22.4699148 25.3531047,22.6710221 C25.2206402,22.6152029 25.1204812,22.5025308 25.080569,22.364438 C25.0406567,22.2263452 25.0652634,22.0776127 25.1475244,21.9597326 C25.4970035,21.2414349 25.8538081,20.5259535 26.1766791,19.7956419 C27.2200372,17.4355512 28.2500384,15.0695593 29.2841174,12.7053581 C30.1249747,10.8806851 30.4501747,8.86060896 30.2244453,6.86423256 C30.1709432,5.95330547 29.9838651,5.05518538 29.669207,4.19865698 C29.2074836,3.06883393 28.3742207,2.13027971 27.3070326,1.53799767 C26.1876982,0.839085317 24.809342,0.693103127 23.5684384,1.14204186 C22.6847754,1.40582836 21.8958018,1.91857642 21.2958802,2.61896047 C20.1898721,4.03414884 18.7870395,5.42805233 20.0275535,7.47749767 C20.9188814,10.2767651 21.8246163,13.071564 22.6958558,15.8770744 C23.1728326,17.4129558 23.549693,18.9806791 24.0503477,20.5082093 C24.3439269,21.6630519 24.8395109,22.7568457 25.514186,23.7390186 C25.9084721,24.3222189 26.5572705,24.6823947 27.2607593,24.7086163 C28.1937372,24.7210372 29.1546337,24.7577791 29.8979686,24.0146233 C31.227002,23.5247699 32.4309902,22.7465298 33.4233721,21.7358547 C34.2768105,20.9615977 35.1202291,20.1762221 36.015057,19.3525988 C36.2228105,19.6539733 36.0638128,19.8318709 35.8465686,20.0296779 C34.9653988,20.831943 34.1147767,21.6690616 33.2127291,22.4467047 C32.5721802,22.9988419 31.867264,23.4763233 31.1911047,23.987136 Z M23.0682558,28.650593 C23.0183141,28.9104659 22.9553075,29.1676569 22.8794756,29.4211872 C22.5110151,30.4623965 22.1238988,31.4970047 21.7548442,32.5380267 C21.6251407,32.903907 21.5248698,33.280393 21.4160605,33.6534767 C20.6174744,36.3920802 19.6267791,39.0830023 19.3257547,41.9458558 C19.2621442,42.5508674 19.2318814,43.1614465 19.224743,43.7699256 C19.2659811,45.0516125 19.6135866,46.3047828 20.2384733,47.4245767 C20.6913316,48.3839614 21.4136592,49.1907821 22.3173105,49.7465826 C23.4566645,50.3630253 24.7981953,50.4879625 26.0317872,50.0925128 C27.6014738,49.6236278 28.8563488,48.4390369 29.4148302,46.89895 C29.657053,46.5290507 29.8039191,46.1049314 29.8423186,45.6644512 C29.7096469,44.9338824 29.5077919,44.2175878 29.2394802,43.525243 C29.1414721,43.2216384 28.9549058,42.9463919 28.8594779,42.6422826 C28.7171419,42.1886826 28.6198337,41.720936 28.4546581,41.0662081 C28.1822116,41.9262233 28.0074721,42.595464 27.7595419,43.2363709 C27.2100419,44.6569233 27.1440302,44.7387826 26.7298337,45.0198814 C26.6908761,44.9853778 26.6615021,44.9413869 26.644564,44.8921802 C27.1204012,43.5039663 27.6004221,42.1171849 28.0846267,40.731836 C28.1705166,40.5954198 28.2223514,40.4403537 28.2357616,40.2797093 C28.0418392,39.3489641 27.7687803,38.4364812 27.4195616,37.5522081 L27.2250267,37.5359942 C26.5279244,39.4094221 25.8308302,41.2828581 25.1337442,43.1563023 L24.9214326,43.101214 C24.9564585,42.8492148 25.0080281,42.5997935 25.075807,42.3545663 C25.6883395,40.5709012 26.3208547,38.7940326 26.9244581,37.0074128 C27.0165876,36.7230299 27.0461336,36.4220879 27.0110709,36.1252174 C26.9497303,35.7700508 26.8556959,35.4213135 26.7301674,35.0834547 C26.5450744,34.4967407 26.347414,33.9139826 26.1550442,33.3295721 C25.6762686,34.3630488 25.3912465,35.4022395 25.0320977,36.4151395 C24.430586,38.1116384 23.9386326,38.976236 23.3612547,39.331486 C23.4370019,39.0715586 23.5308578,38.8172544 23.6421337,38.5704395 C24.5783053,36.6826348 25.2794176,34.6871405 25.7297698,32.6286442 C25.7956971,32.2249982 25.7840947,31.812486 25.6955837,31.4131837 C25.4330529,30.3606698 24.8917421,29.3983521 24.1285849,28.6274442 C23.8280261,28.2388825 23.284626,28.135985 22.862814,28.3877593 C22.6687702,28.4727959 22.4553439,28.5037831 22.2451291,28.4774407 C20.5717221,28.1028023 18.9257128,28.4826988 17.293036,28.7143826 C16.1520964,28.9414152 15.0298109,29.2537821 13.9356407,29.64885 C13.7612338,29.7230671 13.6062622,29.8364536 13.4827407,29.9802186 C12.0010196,31.481374 10.6393495,33.0964592 9.41026279,34.8106093 C9.27029304,35.1017979 8.98896119,35.2992389 8.66753023,35.3318651 C9.9126788,33.4631738 11.2885288,31.6849553 12.7847674,30.0105384 C12.7550109,29.9697318 12.718187,29.934584 12.6760395,29.9067593 C12.5654498,29.9067836 12.4552096,29.919173 12.3473733,29.9436965 C10.8685174,30.3813186 9.31670698,30.5056988 7.88735581,31.1992686 C6.98843824,31.5286958 6.14652565,31.9965825 5.39209186,32.585993 C4.32484215,33.5152224 3.83726531,34.9450337 4.11442907,36.3327186 C4.45639496,38.1571734 5.52600899,39.7639453 7.07721977,40.7834163 C7.6831894,41.2519435 8.47789741,41.3995303 9.21168256,41.1798116 C9.55544767,41.0786047 9.92153953,41.0553907 10.2752593,40.9854965 C11.4072358,40.8141319 12.4708478,40.3366403 13.3511326,39.6046326 C14.9376663,38.1822244 16.636664,36.864393 17.7406616,34.9783326 C18.4923558,33.6941988 19.7909372,32.8092116 20.3794988,31.4006977 C20.4234458,31.3301763 20.4816718,31.2696379 20.5504291,31.2229791 C21.1665436,30.7218471 21.6370306,30.0646922 21.9128895,29.3199558 C22.1274884,28.6809698 22.1573523,28.6731395 23.0682558,28.650593 Z M27.7848151,27.1383163 C27.9087618,27.0466466 28.0655911,27.0114316 28.2168306,27.0413099 C28.3680701,27.0711882 28.4997264,27.1633953 28.5795023,27.2953116 C28.7618472,27.4993021 28.9676328,27.6810565 29.1925884,27.8368023 C31.4220401,29.1356509 33.7318493,30.2913778 36.1080267,31.2969837 C36.9959194,31.6777921 37.9359577,31.9231258 38.8967047,32.0247802 C40.5768593,32.1415174 42.2457326,32.3659895 43.9029663,31.794293 C44.7762053,31.613745 45.5711693,31.164757 46.1766558,30.5101349 C46.6621913,29.8000539 47.079439,29.0456178 47.4228186,28.2569163 C47.5788605,27.8720597 47.6607677,27.4611812 47.6642291,27.0459081 C47.7457044,25.1529581 46.8790004,23.3437737 45.3528128,22.2209872 C44.9405943,21.8811651 44.4214447,21.6981343 43.8872488,21.7042895 C43.5200586,21.6364098 43.1533747,21.825164 42.9952616,22.1634488 C42.8803994,22.3418964 42.6978018,22.4658549 42.4895605,22.50675 C42.0059256,22.6077453 41.5009244,22.608893 41.0190558,22.7157407 C38.6074174,23.2504593 36.1999547,23.8041349 33.7926628,24.3582174 C33.5501446,24.4286967 33.3116007,24.5121937 33.0780686,24.6083453 C34.7873709,26.0229965 34.7873709,26.0229965 34.6937663,26.5711372 C34.4554407,26.3523709 34.2278512,26.1540512 34.0121291,25.9435791 C33.3242845,25.1814876 32.2619895,24.8785029 31.2756174,25.1630791 C30.4675962,25.3614641 29.6735426,25.6129384 28.8986291,25.915864 C27.8525499,26.4513033 27.0569943,27.3741733 26.6815581,28.4877372 C26.570564,28.8033782 26.5532749,29.1443937 26.6317767,29.4696419 C27.1317662,31.6820156 27.8719407,33.8331501 28.8391291,35.8847674 C28.9562767,36.0715141 29.1091604,36.2332798 29.2890012,36.3607756 C30.0098302,37.0097977 30.7573733,37.6309174 31.4524895,38.3061814 C31.9054145,38.6928786 32.235045,39.2038664 32.400607,39.7759372 C31.3697184,38.7096564 30.2283808,37.7560052 28.9958395,36.931064 C29.2250244,37.8395663 29.3860895,38.5885744 29.6124663,39.3172907 C29.7228971,39.5890568 29.8907277,39.8337628 30.1044767,40.0346686 C30.7647233,40.7420837 31.4495105,41.4265291 32.1116128,42.1322756 C32.2031068,42.2961681 32.2694834,42.4728651 32.3085244,42.6564616 C31.3356709,42.1678372 30.8901453,41.2632581 30.1437337,40.8262302 C30.2428081,41.8164453 30.3343616,42.7959977 30.4427884,43.7736128 C30.4368571,44.0514392 30.4992479,44.3264708 30.6244791,44.574543 C31.1514502,45.3933556 31.8530139,46.0854688 32.6788977,46.6012872 C33.7697023,47.1054494 34.9947144,47.2418075 36.1696837,46.9898523 C36.9482208,46.9119178 37.645589,46.4745828 38.0547674,45.8076744 C38.1470852,45.6687149 38.254542,45.5404318 38.375164,45.4251814 C39.4408081,44.3798372 40.2071209,43.2117733 39.9683477,41.620193 C39.9562279,41.5393349 39.9930593,41.4495233 39.9747616,41.3714488 C39.9059547,40.5466217 39.6969337,39.7395784 39.3566942,38.9850512 C38.3598318,37.5160879 37.2395318,36.134798 36.0079674,34.8561907 C34.6045,33.4036663 33.0494256,32.0944465 31.5257779,30.7623709 C30.6958312,29.9046407 29.7797252,29.1346974 28.7919686,28.4647349 C28.3094375,28.1561647 27.952427,27.6859874 27.7847988,27.1383081 L27.7848151,27.1383163 Z M21.3272093,13.3236942 L21.1655744,13.3786523 C21.9361605,15.2045128 22.1241756,17.1801488 22.7353,19.0603977 C23.1887679,20.7764633 23.5182244,22.5229215 23.7211198,24.2862558 C23.7631674,24.5039344 23.7194728,24.7294412 23.5991651,24.9156616 C23.2630649,25.316449 22.8867058,25.6816719 22.476007,26.005586 C21.4618855,26.6858932 20.3424463,27.1941798 19.1628093,27.5099593 C17.619407,28.0361151 16.0365767,28.4567419 14.4530872,28.8522744 C12.9459221,29.2287198 11.4148105,29.5087523 9.8975686,29.8462337 C9.57906247,29.8442159 9.28047141,30.0009614 9.10124535,30.264264 C10.3780779,30.0087477 11.5545012,29.818307 12.7068965,29.5315023 C14.213207,29.1566116 15.68455,28.6290314 17.2010919,28.311036 C18.4562083,28.0926737 19.7225091,27.9443616 20.9941151,27.8667884 C21.3791589,27.8579968 21.7643747,27.8734 22.1474872,27.912907 C22.7530198,27.9325477 23.3596023,27.9316279 23.9638488,27.9694605 C24.1284508,27.9775911 24.2818882,28.0551277 24.3860709,28.1828221 C24.6360837,28.7092194 25.026034,29.1567309 25.5132744,29.476414 C25.6140015,29.5730631 25.6748372,29.7039614 25.6837733,29.8432709 C25.8233826,30.7772907 26.3383547,31.5843174 26.5128174,32.5241407 C26.76835,33.9007721 27.2247012,35.2406535 27.6055988,36.5933547 C27.9136884,37.687414 28.2124256,38.7850709 28.5594709,39.8669698 C28.9573477,41.1072477 29.4039151,42.3319058 29.829336,43.5633442 C29.9405123,43.451523 30.0020739,43.299706 30.0001767,43.1420337 C29.9812481,42.3658767 29.8382013,41.5977532 29.5764651,40.866814 C28.6382481,37.786814 27.7115213,34.7033085 26.7962849,31.6162977 C26.6004331,31.0091927 26.4390563,30.3915019 26.3129267,29.7661814 C26.0982357,28.8954641 26.2540296,27.9747081 26.7432233,27.2230895 C27.3066377,26.3924525 28.1322068,25.774629 29.0880198,25.468336 C30.2670965,25.0620023 31.4721384,24.7312523 32.6646779,24.3636221 C32.8223326,24.3150291 32.9723523,24.2415291 33.1258395,24.1795547 C32.9288061,24.1131765 32.7167979,24.1050987 32.5152849,24.1562919 C31.236157,24.4102942 29.9608791,24.6857279 28.6773233,24.9147012 C28.1613191,25.0198191 27.6334068,25.0542042 27.1081267,25.0169093 C26.537884,25.0356706 25.975056,24.8834991 25.491957,24.5799465 C24.9662302,24.0900858 24.5741688,23.4741997 24.3528616,22.7905512 C23.6746756,20.4765791 22.9739457,18.1692543 22.2506721,15.8685767 C21.9812291,15.0082442 21.6372523,14.1712965 21.3272093,13.3236942 Z M3.45253023,68.7798837 C3.50726687,68.676947 3.55624196,68.5710485 3.59922907,68.4626779 C4.1277562,66.8288508 4.65509496,65.1946492 5.18124535,63.5600733 C5.29235814,63.2173988 5.45127442,62.8880407 5.53862791,62.5401244 C6.0514186,60.4975163 6.7437593,58.5156616 7.44309186,56.5303558 C8.29249068,54.3652787 9.27409533,52.2544278 10.3823593,50.2097302 C10.8502523,49.2676767 11.4510802,48.3903651 11.9000244,47.4404326 C13.2542297,44.8638161 14.7704745,42.3756731 16.4396302,39.9909837 C16.9017523,39.2665651 17.4259465,38.5802965 17.8646593,37.8426105 C18.5447826,36.6990058 19.2132744,35.5451047 19.8112779,34.3575953 C20.2528697,33.8151895 20.5024811,33.1418563 20.5211593,32.4426721 C20.2819384,32.8690942 20.1343849,33.1481256 19.9722779,33.4184233 C19.1209884,34.8377791 18.4453012,36.3520174 17.4963047,37.7231709 C15.9694988,39.9291395 14.5284349,42.1946488 13.063514,44.4430977 C12.579114,45.1865709 12.1579337,45.9717023 11.6646047,46.7088023 C10.3180364,48.711475 9.11220075,50.8052623 8.05580349,52.9750477 C7.75425814,53.5974453 7.37289651,54.1824581 7.09027558,54.8124744 C6.30720349,56.5580709 5.53806628,58.3104802 4.79884186,60.0750581 C4.08161047,61.7872744 3.40193488,63.5154035 2.72407442,65.2437279 C2.64222924,65.4735453 2.61630018,65.7195518 2.64843372,65.9613826 C2.72478256,66.5937023 2.8382314,67.2217895 2.94668256,67.849893 C2.94091191,68.2270573 3.13277005,68.5797846 3.45253023,68.7798837 Z"></path>
            <path d="M16.6490767,10.233357 C16.7895861,10.2745842 16.9211083,10.3418197 17.0368116,10.4315709 C18.1414605,11.7469767 19.6860267,12.6543477 20.7101837,14.3032384 C20.5477115,14.282815 20.3893855,14.237337 20.2408419,14.1684233 C18.9923891,12.9298302 17.7483562,11.6867984 16.508743,10.4393279 L16.6490767,10.233357 Z"></path>
            <path d="M15.4994977,6.5015593 C16.9589673,7.25416765 18.2437681,8.30541448 19.2704221,9.58699651 C17.8729007,8.74338094 16.6030931,7.70440184 15.4994977,6.5015593 L15.4994977,6.5015593 Z"></path>
            <path d="M20.7470477,17.8190128 C19.2910167,17.7518254 17.9312202,17.0723248 17.0033256,15.9482465 C18.2327128,16.5625698 19.4672198,17.1794488 20.7470477,17.8190128 Z"></path>
            <path d="M23.7634453,17.7893198 C23.6280279,16.5646616 25.6317616,11.4440721 26.3344884,10.8863023 C26.3701544,10.9229657 26.3953849,10.9684867 26.4075733,11.0181628 C26.345607,11.2005453 26.2650012,11.3765221 26.1948547,11.5562674 C25.3839562,13.6337915 24.5734864,15.7114756 23.7634453,17.7893198 Z"></path>
            <path d="M25.9365058,7.88865 C24.8979012,9.74658837 23.8710663,11.5835105 22.8291081,13.4474802 C22.7477372,12.3343744 24.8920326,8.50780814 25.9365058,7.88865 Z"></path>
            <path d="M40.9854721,19.2709674 C40.2549459,20.5298235 39.0871341,21.4761988 37.7042302,21.9300314 C37.8131047,21.3589128 38.3669105,21.3262081 38.684393,21.0505221 C39.0366151,20.7446953 39.4282081,20.4845314 39.7990128,20.1996884 C40.1553047,19.9259314 40.5069326,19.6460209 40.9854721,19.2709674 Z"></path>
            <path d="M21.6553547,8.90572558 C21.7119198,7.85790893 22.2033656,6.88128409 23.0111244,6.21147442 C22.6260105,7.13349922 22.2408802,8.05552674 21.8557337,8.97755698 L21.6553547,8.90572558 Z"></path>
            <path d="M12.4485558,34.0342116 C12.8190756,33.5351523 13.1597395,33.0101686 13.566114,32.5422349 C14.5279791,31.434607 15.517486,30.350836 16.5041686,29.2649977 C16.6716161,28.9161328 17.082949,28.7595146 17.4400198,28.9086651 C15.801336,30.6668535 14.1975465,32.3875919 12.5937407,34.1083221 L12.4485558,34.0342116 Z"></path>
            <path d="M9.8571314,31.2073593 C9.45853804,32.1737053 8.84594798,33.0370543 8.06546512,33.7324302 C8.42206235,32.8978736 8.87062945,32.1056937 9.40284767,31.3705814 C9.53999981,31.2825524 9.69531698,31.2267476 9.8571314,31.2073593 L9.8571314,31.2073593 Z"></path>
            <path d="M27.2651221,30.3561186 C28.0882027,31.4330496 28.9110554,32.5101326 29.7336802,33.5873674 C30.2613084,34.2658044 30.9664605,34.7849238 31.7710058,35.087207 C31.1895185,35.1957326 30.5922144,35.0070524 30.1785872,34.5841837 C29.7655485,34.1777296 29.378793,33.7454037 29.0206651,33.2898267 C28.4658093,32.5990977 27.9251326,31.8957279 27.4098512,31.1752651 C27.2744492,30.9303029 27.1688425,30.6700202 27.0952826,30.3999663 L27.2651221,30.3561186 Z"></path>
            <path d="M39.2387523,25.5371802 C37.9827814,25.1283802 36.7723919,24.7366163 35.5656814,24.3337581 C35.5105355,24.2622866 35.4732736,24.178668 35.4570023,24.0898733 C35.8887455,23.8916668 36.3890006,23.9105029 36.8046163,24.1406151 C38.3375349,24.6116012 38.8212756,24.9045349 39.2387523,25.5371802 Z"></path>
            <path d="M39.2010012,23.1885581 C40.6221988,23.4408865 41.953215,24.058886 43.0630802,24.9817465 C42.3940756,25.1708605 42.1001733,24.6743163 41.6879465,24.5451907 C41.2443037,24.3934482 40.8112305,24.2124035 40.3915872,24.0032523 C40.00815,23.8241337 39.4534733,23.9174372 39.2010012,23.1885581 Z"></path>
        </g>
    </g>
</svg>